%YAML 1.1
%TAG !u! tag:unity3d.com,2011:
--- !u!29 &1
OcclusionCullingSettings:
  m_ObjectHideFlags: 0
  serializedVersion: 2
  m_OcclusionBakeSettings:
    smallestOccluder: 5
    smallestHole: 0.25
    backfaceThreshold: 100
  m_SceneGUID: 00000000000000000000000000000000
  m_OcclusionCullingData: {fileID: 0}
--- !u!104 &2
RenderSettings:
  m_ObjectHideFlags: 0
  serializedVersion: 8
  m_Fog: 0
  m_FogColor: {r: 0.5, g: 0.5, b: 0.5, a: 1}
  m_FogMode: 3
  m_FogDensity: 0.01
  m_LinearFogStart: 0
  m_LinearFogEnd: 300
  m_AmbientSkyColor: {r: 0.2, g: 0.2, b: 0.2, a: 1}
  m_AmbientEquatorColor: {r: 0.2, g: 0.2, b: 0.2, a: 1}
  m_AmbientGroundColor: {r: 0.2, g: 0.2, b: 0.2, a: 1}
  m_AmbientIntensity: 1
  m_AmbientMode: 3
  m_SubtractiveShadowColor: {r: 0.42, g: 0.478, b: 0.627, a: 1}
  m_SkyboxMaterial: {fileID: 0}
  m_HaloStrength: 0.5
  m_FlareStrength: 1
  m_FlareFadeSpeed: 3
  m_HaloTexture: {fileID: 0}
  m_SpotCookie: {fileID: 10001, guid: 0000000000000000e000000000000000, type: 0}
  m_DefaultReflectionMode: 0
  m_DefaultReflectionResolution: 128
  m_ReflectionBounces: 1
  m_ReflectionIntensity: 1
  m_CustomReflection: {fileID: 0}
  m_Sun: {fileID: 0}
  m_IndirectSpecularColor: {r: 0, g: 0, b: 0, a: 1}
--- !u!157 &4
LightmapSettings:
  m_ObjectHideFlags: 0
  serializedVersion: 11
  m_GIWorkflowMode: 1
  m_GISettings:
    serializedVersion: 2
    m_BounceScale: 1
    m_IndirectOutputScale: 1
    m_AlbedoBoost: 1
    m_TemporalCoherenceThreshold: 1
    m_EnvironmentLightingMode: 0
    m_EnableBakedLightmaps: 1
    m_EnableRealtimeLightmaps: 0
  m_LightmapEditorSettings:
    serializedVersion: 9
    m_Resolution: 1
    m_BakeResolution: 50
    m_TextureWidth: 1024
    m_TextureHeight: 1024
    m_AO: 0
    m_AOMaxDistance: 1
    m_CompAOExponent: 0
    m_CompAOExponentDirect: 0
    m_Padding: 2
    m_LightmapParameters: {fileID: 0}
    m_LightmapsBakeMode: 1
    m_TextureCompression: 0
    m_FinalGather: 0
    m_FinalGatherFiltering: 1
    m_FinalGatherRayCount: 1024
    m_ReflectionCompression: 2
    m_MixedBakeMode: 1
    m_BakeBackend: 0
    m_PVRSampling: 1
    m_PVRDirectSampleCount: 32
    m_PVRSampleCount: 500
    m_PVRBounces: 2
    m_PVRFilterTypeDirect: 0
    m_PVRFilterTypeIndirect: 0
    m_PVRFilterTypeAO: 0
    m_PVRFilteringMode: 0
    m_PVRCulling: 1
    m_PVRFilteringGaussRadiusDirect: 1
    m_PVRFilteringGaussRadiusIndirect: 5
    m_PVRFilteringGaussRadiusAO: 2
    m_PVRFilteringAtrousPositionSigmaDirect: 0.5
    m_PVRFilteringAtrousPositionSigmaIndirect: 2
    m_PVRFilteringAtrousPositionSigmaAO: 1
  m_LightingDataAsset: {fileID: 0}
  m_UseShadowmask: 0
--- !u!196 &5
NavMeshSettings:
  serializedVersion: 2
  m_ObjectHideFlags: 0
  m_BuildSettings:
    serializedVersion: 2
    agentTypeID: 0
    agentRadius: 0.5
    agentHeight: 2
    agentSlope: 45
    agentClimb: 0.4
    ledgeDropHeight: 0
    maxJumpAcrossDistance: 0
    minRegionArea: 2
    manualCellSize: 0
    cellSize: 0.16666666
    manualTileSize: 0
    tileSize: 256
    accuratePlacement: 0
    debug:
      m_Flags: 0
  m_NavMeshData: {fileID: 0}
--- !u!1 &50500970
GameObject:
  m_ObjectHideFlags: 0
  m_PrefabParentObject: {fileID: 0}
  m_PrefabInternal: {fileID: 0}
  serializedVersion: 5
  m_Component:
  - component: {fileID: 50500971}
  - component: {fileID: 50500973}
  - component: {fileID: 50500972}
  m_Layer: 0
  m_Name: AudioSourceProExamplePart3
  m_TagString: Untagged
  m_Icon: {fileID: 0}
  m_NavMeshLayer: 0
  m_StaticEditorFlags: 0
  m_IsActive: 0
--- !u!4 &50500971
Transform:
  m_ObjectHideFlags: 0
  m_PrefabParentObject: {fileID: 0}
  m_PrefabInternal: {fileID: 0}
  m_GameObject: {fileID: 50500970}
  m_LocalRotation: {x: 0, y: 0, z: 0, w: 1}
  m_LocalPosition: {x: -0, y: 0, z: -0}
  m_LocalScale: {x: 1, y: 1, z: 1}
  m_Children: []
  m_Father: {fileID: 584058582}
  m_RootOrder: 0
  m_LocalEulerAnglesHint: {x: 0, y: 0, z: 0}
--- !u!82 &50500972
AudioSource:
  m_ObjectHideFlags: 10
  m_PrefabParentObject: {fileID: 0}
  m_PrefabInternal: {fileID: 0}
  m_GameObject: {fileID: 50500970}
  m_Enabled: 1
  serializedVersion: 4
  OutputAudioMixerGroup: {fileID: 0}
  m_audioClip: {fileID: 0}
  m_PlayOnAwake: 1
  m_Volume: 1
  m_Pitch: 1
  Loop: 0
  Mute: 0
  Spatialize: 0
  SpatializePostEffects: 0
  Priority: 128
  DopplerLevel: 1
  MinDistance: 1
  MaxDistance: 500
  Pan2D: 0
  rolloffMode: 0
  BypassEffects: 0
  BypassListenerEffects: 0
  BypassReverbZones: 0
  rolloffCustomCurve:
    serializedVersion: 2
    m_Curve:
    - serializedVersion: 2
      time: 0
      value: 1
      inSlope: 0
      outSlope: 0
      tangentMode: 0
    - serializedVersion: 2
      time: 1
      value: 0
      inSlope: 0
      outSlope: 0
      tangentMode: 0
    m_PreInfinity: 2
    m_PostInfinity: 2
    m_RotationOrder: 4
  panLevelCustomCurve:
    serializedVersion: 2
    m_Curve:
    - serializedVersion: 2
      time: 0
      value: 0
      inSlope: 0
      outSlope: 0
      tangentMode: 0
    m_PreInfinity: 2
    m_PostInfinity: 2
    m_RotationOrder: 4
  spreadCustomCurve:
    serializedVersion: 2
    m_Curve:
    - serializedVersion: 2
      time: 0
      value: 0
      inSlope: 0
      outSlope: 0
      tangentMode: 0
    m_PreInfinity: 2
    m_PostInfinity: 2
    m_RotationOrder: 4
  reverbZoneMixCustomCurve:
    serializedVersion: 2
    m_Curve:
    - serializedVersion: 2
      time: 0
      value: 1
      inSlope: 0
      outSlope: 0
      tangentMode: 0
    m_PreInfinity: 2
    m_PostInfinity: 2
    m_RotationOrder: 4
--- !u!114 &50500973
MonoBehaviour:
  m_ObjectHideFlags: 0
  m_PrefabParentObject: {fileID: 0}
  m_PrefabInternal: {fileID: 0}
  m_GameObject: {fileID: 50500970}
  m_Enabled: 1
  m_EditorHideFlags: 0
  m_Script: {fileID: 11500000, guid: ca8ae34729948b84ca8698a29b32c385, type: 3}
  m_Name: 
  m_EditorClassIdentifier: 
  audioSource: {fileID: 50500972}
  clipType: 2
  clipName: 
  groupName: BlowUp
  OnStartActivated: 0
  OnVisibleActivated: 0
  OnInvisibleActivated: 0
  OnCollisionEnterActivated: 0
  OnCollisionExitActivated: 0
  OnTriggerEnterActivated: 0
  OnTriggerExitActivated: 0
  OnMouseEnterActivated: 0
  OnMouseClickActivated: 0
  OnEnableActivated: 0
  OnDisableActivated: 0
  OnCollision2dEnterActivated: 0
  OnCollision2dExitActivated: 0
  OnTriggerEnter2dActivated: 0
  OnTriggerExit2dActivated: 0
  OnParticleCollisionActivated: 0
  ShowEditor3D: 0
  ShowEditor2D: 0
  ShowEventTriggers: 0
  numSubscriptions: 0
  audioSubscriptions: []
--- !u!1 &184133834
GameObject:
  m_ObjectHideFlags: 0
  m_PrefabParentObject: {fileID: 0}
  m_PrefabInternal: {fileID: 0}
  serializedVersion: 5
  m_Component:
  - component: {fileID: 184133835}
  - component: {fileID: 184133836}
  - component: {fileID: 184133838}
  - component: {fileID: 184133839}
  - component: {fileID: 184133837}
  m_Layer: 0
  m_Name: Main Camera
  m_TagString: MainCamera
  m_Icon: {fileID: 0}
  m_NavMeshLayer: 0
  m_StaticEditorFlags: 0
  m_IsActive: 1
--- !u!4 &184133835
Transform:
  m_ObjectHideFlags: 0
  m_PrefabParentObject: {fileID: 0}
  m_PrefabInternal: {fileID: 0}
  m_GameObject: {fileID: 184133834}
  m_LocalRotation: {x: 0, y: 0, z: 0, w: 1}
  m_LocalPosition: {x: 0, y: 1, z: -10}
  m_LocalScale: {x: 1, y: 1, z: 1}
  m_Children: []
  m_Father: {fileID: 0}
  m_RootOrder: 2
  m_LocalEulerAnglesHint: {x: 0, y: 0, z: 0}
--- !u!20 &184133836
Camera:
  m_ObjectHideFlags: 0
  m_PrefabParentObject: {fileID: 0}
  m_PrefabInternal: {fileID: 0}
  m_GameObject: {fileID: 184133834}
  m_Enabled: 1
  serializedVersion: 2
  m_ClearFlags: 1
  m_BackGroundColor: {r: 0.19215687, g: 0.3019608, b: 0.4745098, a: 0.019607844}
  m_NormalizedViewPortRect:
    serializedVersion: 2
    x: 0
    y: 0
    width: 1
    height: 1
  near clip plane: 0.3
  far clip plane: 1000
  field of view: 60
  orthographic: 0
  orthographic size: 100
  m_Depth: -1
  m_CullingMask:
    serializedVersion: 2
    m_Bits: 4294967295
  m_RenderingPath: -1
  m_TargetTexture: {fileID: 0}
  m_TargetDisplay: 0
  m_TargetEye: 3
  m_HDR: 0
  m_AllowMSAA: 1
  m_ForceIntoRT: 0
  m_OcclusionCulling: 1
  m_StereoConvergence: 10
  m_StereoSeparation: 0.022
--- !u!81 &184133837
AudioListener:
  m_ObjectHideFlags: 0
  m_PrefabParentObject: {fileID: 0}
  m_PrefabInternal: {fileID: 0}
  m_GameObject: {fileID: 184133834}
  m_Enabled: 1
--- !u!92 &184133838
Behaviour:
  m_ObjectHideFlags: 0
  m_PrefabParentObject: {fileID: 0}
  m_PrefabInternal: {fileID: 0}
  m_GameObject: {fileID: 184133834}
  m_Enabled: 1
--- !u!124 &184133839
Behaviour:
  m_ObjectHideFlags: 0
  m_PrefabParentObject: {fileID: 0}
  m_PrefabInternal: {fileID: 0}
  m_GameObject: {fileID: 184133834}
  m_Enabled: 1
--- !u!1 &584058581
GameObject:
  m_ObjectHideFlags: 0
  m_PrefabParentObject: {fileID: 0}
  m_PrefabInternal: {fileID: 0}
  serializedVersion: 5
  m_Component:
  - component: {fileID: 584058582}
  - component: {fileID: 584058583}
  m_Layer: 0
  m_Name: DemoPart2
  m_TagString: Untagged
  m_Icon: {fileID: 0}
  m_NavMeshLayer: 0
  m_StaticEditorFlags: 0
  m_IsActive: 1
--- !u!4 &584058582
Transform:
  m_ObjectHideFlags: 0
  m_PrefabParentObject: {fileID: 0}
  m_PrefabInternal: {fileID: 0}
  m_GameObject: {fileID: 584058581}
  m_LocalRotation: {x: 0, y: 0, z: 0, w: 1}
  m_LocalPosition: {x: 0.014750004, y: 0, z: -0.00857687}
  m_LocalScale: {x: 1, y: 1, z: 1}
  m_Children:
  - {fileID: 50500971}
  - {fileID: 768636495}
  - {fileID: 820927531}
  - {fileID: 884792311}
  - {fileID: 1148898008}
  - {fileID: 2108119620}
  m_Father: {fileID: 0}
  m_RootOrder: 1
  m_LocalEulerAnglesHint: {x: 0, y: 0, z: 0}
--- !u!114 &584058583
MonoBehaviour:
  m_ObjectHideFlags: 0
  m_PrefabParentObject: {fileID: 0}
  m_PrefabInternal: {fileID: 0}
  m_GameObject: {fileID: 584058581}
  m_Enabled: 1
  m_EditorHideFlags: 0
  m_Script: {fileID: 11500000, guid: 7f18e25a829287c4483b145bd8aaea33, type: 3}
  m_Name: 
  m_EditorClassIdentifier: 
  icon: {fileID: 2800000, guid: 20ef0fdd226374f4aacde07b76c55cd0, type: 3}
  part1: {fileID: 768636494}
  part2: {fileID: 2108119619}
  part3: {fileID: 50500970}
  part4: {fileID: 1148898007}
  part5: {fileID: 820927530}
  part6: {fileID: 884792310}
--- !u!1 &585241479
GameObject:
  m_ObjectHideFlags: 0
  m_PrefabParentObject: {fileID: 100000, guid: d65b5b8b42ae8f54780d300fb8a1b82b, type: 2}
  m_PrefabInternal: {fileID: 1790354377}
  serializedVersion: 5
  m_Component:
  - component: {fileID: 585241483}
  - component: {fileID: 585241482}
  - component: {fileID: 585241481}
  - component: {fileID: 585241480}
  m_Layer: 0
  m_Name: SoundManager
  m_TagString: Untagged
  m_Icon: {fileID: 0}
  m_NavMeshLayer: 0
  m_StaticEditorFlags: 0
  m_IsActive: 1
--- !u!82 &585241480
AudioSource:
  m_ObjectHideFlags: 0
  m_PrefabParentObject: {fileID: 8200000, guid: d65b5b8b42ae8f54780d300fb8a1b82b,
    type: 2}
  m_PrefabInternal: {fileID: 1790354377}
  m_GameObject: {fileID: 585241479}
  m_Enabled: 1
  serializedVersion: 4
  OutputAudioMixerGroup: {fileID: 0}
  m_audioClip: {fileID: 0}
  m_PlayOnAwake: 1
  m_Volume: 0
  m_Pitch: 1
  Loop: 0
  Mute: 0
  Spatialize: 0
  SpatializePostEffects: 0
  Priority: 128
  DopplerLevel: 1
  MinDistance: 1
  MaxDistance: 500
  Pan2D: 0
  rolloffMode: 0
  BypassEffects: 0
  BypassListenerEffects: 0
  BypassReverbZones: 0
  rolloffCustomCurve:
    serializedVersion: 2
    m_Curve:
    - serializedVersion: 2
      time: 0
      value: 1
      inSlope: 0
      outSlope: 0
      tangentMode: 0
    - serializedVersion: 2
      time: 1
      value: 0
      inSlope: 0
      outSlope: 0
      tangentMode: 0
    m_PreInfinity: 2
    m_PostInfinity: 2
    m_RotationOrder: 4
  panLevelCustomCurve:
    serializedVersion: 2
    m_Curve:
    - serializedVersion: 2
      time: 0
      value: 0
      inSlope: 0
      outSlope: 0
      tangentMode: 0
    m_PreInfinity: 2
    m_PostInfinity: 2
    m_RotationOrder: 4
  spreadCustomCurve:
    serializedVersion: 2
    m_Curve:
    - serializedVersion: 2
      time: 0
      value: 0
      inSlope: 0
      outSlope: 0
      tangentMode: 0
    m_PreInfinity: 2
    m_PostInfinity: 2
    m_RotationOrder: 4
  reverbZoneMixCustomCurve:
    serializedVersion: 2
    m_Curve:
    - serializedVersion: 2
      time: 0
      value: 1
      inSlope: 0
      outSlope: 0
      tangentMode: 0
    m_PreInfinity: 2
    m_PostInfinity: 2
    m_RotationOrder: 4
--- !u!82 &585241481
AudioSource:
  m_ObjectHideFlags: 0
  m_PrefabParentObject: {fileID: 8200002, guid: d65b5b8b42ae8f54780d300fb8a1b82b,
    type: 2}
  m_PrefabInternal: {fileID: 1790354377}
  m_GameObject: {fileID: 585241479}
  m_Enabled: 1
  serializedVersion: 4
  OutputAudioMixerGroup: {fileID: 0}
  m_audioClip: {fileID: 0}
  m_PlayOnAwake: 1
  m_Volume: 0
  m_Pitch: 1
  Loop: 0
  Mute: 0
  Spatialize: 0
  SpatializePostEffects: 0
  Priority: 128
  DopplerLevel: 1
  MinDistance: 1
  MaxDistance: 500
  Pan2D: 0
  rolloffMode: 0
  BypassEffects: 0
  BypassListenerEffects: 0
  BypassReverbZones: 0
  rolloffCustomCurve:
    serializedVersion: 2
    m_Curve:
    - serializedVersion: 2
      time: 0
      value: 1
      inSlope: 0
      outSlope: 0
      tangentMode: 0
    - serializedVersion: 2
      time: 1
      value: 0
      inSlope: 0
      outSlope: 0
      tangentMode: 0
    m_PreInfinity: 2
    m_PostInfinity: 2
    m_RotationOrder: 4
  panLevelCustomCurve:
    serializedVersion: 2
    m_Curve:
    - serializedVersion: 2
      time: 0
      value: 0
      inSlope: 0
      outSlope: 0
      tangentMode: 0
    m_PreInfinity: 2
    m_PostInfinity: 2
    m_RotationOrder: 4
  spreadCustomCurve:
    serializedVersion: 2
    m_Curve:
    - serializedVersion: 2
      time: 0
      value: 0
      inSlope: 0
      outSlope: 0
      tangentMode: 0
    m_PreInfinity: 2
    m_PostInfinity: 2
    m_RotationOrder: 4
  reverbZoneMixCustomCurve:
    serializedVersion: 2
    m_Curve:
    - serializedVersion: 2
      time: 0
      value: 1
      inSlope: 0
      outSlope: 0
      tangentMode: 0
    m_PreInfinity: 2
    m_PostInfinity: 2
    m_RotationOrder: 4
--- !u!114 &585241482
MonoBehaviour:
  m_ObjectHideFlags: 0
  m_PrefabParentObject: {fileID: 11400000, guid: d65b5b8b42ae8f54780d300fb8a1b82b,
    type: 2}
  m_PrefabInternal: {fileID: 1790354377}
  m_GameObject: {fileID: 585241479}
  m_Enabled: 1
  m_EditorHideFlags: 0
  m_Script: {fileID: 11500000, guid: 617da7e6dc6c82f43988a70b1b7fd69e, type: 3}
  m_Name: 
  m_EditorClassIdentifier: 
  helpOn: 0
  showInfo: 1
  showDev: 1
  showList: 1
  showAdd: 1
  showSFX: 1
  showSFXDetails: 01
  groupAddIndex: 0
  autoPrepoolAmount: 0
  autoBaseVolume: 1
  autoVolumeVariation: 0
  autoPitchVariation: 0
  showAsGrouped: 0
  soundConnections: []
  audios:
  - {fileID: 585241481}
  - {fileID: 585241480}
  currentLevel: 
  currentSoundConnection:
    level: 
    isCustomLevel: 0
    soundsToPlay: []
    baseVolumes: []
    playMethod: 0
    minDelay: 0
    maxDelay: 0
    delay: 0
  crossDuration: 5
  showDebug: 1
  offTheBGM: 0
  isPaused: 0
  movingOnFromSong: 0
  ignoreLevelLoad: 0
  resourcesPath: Sounds/SFX
  storedSFXs:
  - {fileID: 8300000, guid: 4aace3f56335d6c4196b5098a89f1470, type: 3}
  unOwnedSFXObjects: []
  sfxGroups:
  - groupName: BlowUp
    specificCapAmount: -1
    clips: []
    independentVolume: 0
    independentPitch: 0
    volume: 1
    pitch: 1
  clipToGroupKeys:
  - Explosion1
  clipToGroupValues:
  - BlowUp
  offTheSFX: 0
  capAmount: 3
  sfxPrePoolAmounts: 00000000
  sfxBaseVolumes:
  - 1
  sfxVolumeVariations:
  - 0
  sfxPitchVariations:
  - 0
  SFXObjectLifetime: 10
  currentPockets:
  - Default
  defaultSFXSpatialBlend: 0
--- !u!4 &585241483
Transform:
  m_ObjectHideFlags: 0
  m_PrefabParentObject: {fileID: 400000, guid: d65b5b8b42ae8f54780d300fb8a1b82b, type: 2}
  m_PrefabInternal: {fileID: 1790354377}
  m_GameObject: {fileID: 585241479}
  m_LocalRotation: {x: 0, y: 0, z: 0, w: 1}
  m_LocalPosition: {x: 0, y: 0, z: 0}
  m_LocalScale: {x: 1, y: 1, z: 1}
  m_Children: []
  m_Father: {fileID: 0}
  m_RootOrder: 0
  m_LocalEulerAnglesHint: {x: 0, y: 0, z: 0}
--- !u!1 &768636494
GameObject:
  m_ObjectHideFlags: 0
  m_PrefabParentObject: {fileID: 0}
  m_PrefabInternal: {fileID: 0}
  serializedVersion: 5
  m_Component:
  - component: {fileID: 768636495}
  - component: {fileID: 768636497}
  - component: {fileID: 768636496}
  m_Layer: 0
  m_Name: AudioSourceProExamplePart1
  m_TagString: Untagged
  m_Icon: {fileID: 0}
  m_NavMeshLayer: 0
  m_StaticEditorFlags: 0
  m_IsActive: 0
--- !u!4 &768636495
Transform:
  m_ObjectHideFlags: 0
  m_PrefabParentObject: {fileID: 0}
  m_PrefabInternal: {fileID: 0}
  m_GameObject: {fileID: 768636494}
  m_LocalRotation: {x: 0, y: 0, z: 0, w: 1}
  m_LocalPosition: {x: 0, y: 0, z: 0}
  m_LocalScale: {x: 1, y: 1, z: 1}
  m_Children: []
  m_Father: {fileID: 584058582}
  m_RootOrder: 1
  m_LocalEulerAnglesHint: {x: 0, y: 0, z: 0}
--- !u!82 &768636496
AudioSource:
  m_ObjectHideFlags: 10
  m_PrefabParentObject: {fileID: 0}
  m_PrefabInternal: {fileID: 0}
  m_GameObject: {fileID: 768636494}
  m_Enabled: 1
  serializedVersion: 4
  OutputAudioMixerGroup: {fileID: 0}
  m_audioClip: {fileID: 8300000, guid: 4aace3f56335d6c4196b5098a89f1470, type: 3}
  m_PlayOnAwake: 1
  m_Volume: 1
  m_Pitch: 1
  Loop: 0
  Mute: 0
  Spatialize: 0
  SpatializePostEffects: 0
  Priority: 128
  DopplerLevel: 1
  MinDistance: 1
  MaxDistance: 500
  Pan2D: 0
  rolloffMode: 0
  BypassEffects: 0
  BypassListenerEffects: 0
  BypassReverbZones: 0
  rolloffCustomCurve:
    serializedVersion: 2
    m_Curve:
    - serializedVersion: 2
      time: 0
      value: 1
      inSlope: 0
      outSlope: 0
      tangentMode: 0
    - serializedVersion: 2
      time: 1
      value: 0
      inSlope: 0
      outSlope: 0
      tangentMode: 0
    m_PreInfinity: 2
    m_PostInfinity: 2
    m_RotationOrder: 4
  panLevelCustomCurve:
    serializedVersion: 2
    m_Curve:
    - serializedVersion: 2
      time: 0
      value: 0
      inSlope: 0
      outSlope: 0
      tangentMode: 0
    m_PreInfinity: 2
    m_PostInfinity: 2
    m_RotationOrder: 4
  spreadCustomCurve:
    serializedVersion: 2
    m_Curve:
    - serializedVersion: 2
      time: 0
      value: 0
      inSlope: 0
      outSlope: 0
      tangentMode: 0
    m_PreInfinity: 2
    m_PostInfinity: 2
    m_RotationOrder: 4
  reverbZoneMixCustomCurve:
    serializedVersion: 2
    m_Curve:
    - serializedVersion: 2
      time: 0
      value: 1
      inSlope: 0
      outSlope: 0
      tangentMode: 0
    m_PreInfinity: 2
    m_PostInfinity: 2
    m_RotationOrder: 4
--- !u!114 &768636497
MonoBehaviour:
  m_ObjectHideFlags: 0
  m_PrefabParentObject: {fileID: 0}
  m_PrefabInternal: {fileID: 0}
  m_GameObject: {fileID: 768636494}
  m_Enabled: 1
  m_EditorHideFlags: 0
  m_Script: {fileID: 11500000, guid: ca8ae34729948b84ca8698a29b32c385, type: 3}
  m_Name: 
  m_EditorClassIdentifier: 
  audioSource: {fileID: 768636496}
  clipType: 0
  clipName: 
  groupName: 
  OnStartActivated: 0
  OnVisibleActivated: 0
  OnInvisibleActivated: 0
  OnCollisionEnterActivated: 0
  OnCollisionExitActivated: 0
  OnTriggerEnterActivated: 0
  OnTriggerExitActivated: 0
  OnMouseEnterActivated: 0
  OnMouseClickActivated: 0
  OnEnableActivated: 0
  OnDisableActivated: 0
  OnCollision2dEnterActivated: 0
  OnCollision2dExitActivated: 0
  OnTriggerEnter2dActivated: 0
  OnTriggerExit2dActivated: 0
  OnParticleCollisionActivated: 0
  ShowEditor3D: 0
  ShowEditor2D: 0
  ShowEventTriggers: 0
  numSubscriptions: 0
  audioSubscriptions: []
--- !u!1 &820927530
GameObject:
  m_ObjectHideFlags: 0
  m_PrefabParentObject: {fileID: 0}
  m_PrefabInternal: {fileID: 0}
  serializedVersion: 5
  m_Component:
  - component: {fileID: 820927531}
  - component: {fileID: 820927533}
  - component: {fileID: 820927532}
  - component: {fileID: 820927534}
  m_Layer: 0
  m_Name: AudioSourceProExamplePart5
  m_TagString: Untagged
  m_Icon: {fileID: 0}
  m_NavMeshLayer: 0
  m_StaticEditorFlags: 0
  m_IsActive: 0
--- !u!4 &820927531
Transform:
  m_ObjectHideFlags: 0
  m_PrefabParentObject: {fileID: 0}
  m_PrefabInternal: {fileID: 0}
  m_GameObject: {fileID: 820927530}
  m_LocalRotation: {x: 0, y: 0, z: 0, w: 1}
  m_LocalPosition: {x: -0, y: 0, z: -0}
  m_LocalScale: {x: 1, y: 1, z: 1}
  m_Children: []
  m_Father: {fileID: 584058582}
  m_RootOrder: 2
  m_LocalEulerAnglesHint: {x: 0, y: 0, z: 0}
--- !u!82 &820927532
AudioSource:
  m_ObjectHideFlags: 10
  m_PrefabParentObject: {fileID: 0}
  m_PrefabInternal: {fileID: 0}
  m_GameObject: {fileID: 820927530}
  m_Enabled: 1
  serializedVersion: 4
  OutputAudioMixerGroup: {fileID: 0}
  m_audioClip: {fileID: 0}
  m_PlayOnAwake: 0
  m_Volume: 1
  m_Pitch: 1
  Loop: 0
  Mute: 0
  Spatialize: 0
  SpatializePostEffects: 0
  Priority: 128
  DopplerLevel: 1
  MinDistance: 1
  MaxDistance: 500
  Pan2D: 0
  rolloffMode: 0
  BypassEffects: 0
  BypassListenerEffects: 0
  BypassReverbZones: 0
  rolloffCustomCurve:
    serializedVersion: 2
    m_Curve:
    - serializedVersion: 2
      time: 0
      value: 1
      inSlope: 0
      outSlope: 0
      tangentMode: 0
    - serializedVersion: 2
      time: 1
      value: 0
      inSlope: 0
      outSlope: 0
      tangentMode: 0
    m_PreInfinity: 2
    m_PostInfinity: 2
    m_RotationOrder: 4
  panLevelCustomCurve:
    serializedVersion: 2
    m_Curve:
    - serializedVersion: 2
      time: 0
      value: 0
      inSlope: 0
      outSlope: 0
      tangentMode: 0
    m_PreInfinity: 2
    m_PostInfinity: 2
    m_RotationOrder: 4
  spreadCustomCurve:
    serializedVersion: 2
    m_Curve:
    - serializedVersion: 2
      time: 0
      value: 0
      inSlope: 0
      outSlope: 0
      tangentMode: 0
    m_PreInfinity: 2
    m_PostInfinity: 2
    m_RotationOrder: 4
  reverbZoneMixCustomCurve:
    serializedVersion: 2
    m_Curve:
    - serializedVersion: 2
      time: 0
      value: 1
      inSlope: 0
      outSlope: 0
      tangentMode: 0
    m_PreInfinity: 2
    m_PostInfinity: 2
    m_RotationOrder: 4
--- !u!114 &820927533
MonoBehaviour:
  m_ObjectHideFlags: 0
  m_PrefabParentObject: {fileID: 0}
  m_PrefabInternal: {fileID: 0}
  m_GameObject: {fileID: 820927530}
  m_Enabled: 1
  m_EditorHideFlags: 0
  m_Script: {fileID: 11500000, guid: ca8ae34729948b84ca8698a29b32c385, type: 3}
  m_Name: 
  m_EditorClassIdentifier: 
  audioSource: {fileID: 820927532}
  clipType: 1
  clipName: Explosion1
  groupName: 
  OnStartActivated: 0
  OnVisibleActivated: 0
  OnInvisibleActivated: 0
  OnCollisionEnterActivated: 0
  OnCollisionExitActivated: 0
  OnTriggerEnterActivated: 0
  OnTriggerExitActivated: 0
  OnMouseEnterActivated: 0
  OnMouseClickActivated: 0
  OnEnableActivated: 0
  OnDisableActivated: 1
  OnCollision2dEnterActivated: 0
  OnCollision2dExitActivated: 0
  OnTriggerEnter2dActivated: 0
  OnTriggerExit2dActivated: 0
  OnParticleCollisionActivated: 0
  ShowEditor3D: 0
  ShowEditor2D: 0
  ShowEventTriggers: 1
  numSubscriptions: 2
  audioSubscriptions:
  - owner: {fileID: 0}
    isStandardEvent: 0
    standardEvent: 0
    sourceComponent: {fileID: 820927534}
    methodName: Explode
    actionType: 2
    cappedName: 
    filterLayers: 0
    filterTags: 0
    filterNames: 0
    tagMask: 0
    nameMask: 0
    nameToAdd: 
    allNames: []
    layerMask: 0
    tags:
    - Default
    names: []
  - owner: {fileID: 0}
    isStandardEvent: 0
    standardEvent: 0
    sourceComponent: {fileID: 820927534}
    methodName: Detonate
    actionType: 4
    cappedName: 
    filterLayers: 0
    filterTags: 0
    filterNames: 0
    tagMask: 0
    nameMask: 0
    nameToAdd: 
    allNames: []
    layerMask: 0
    tags:
    - Default
    names: []
--- !u!114 &820927534
MonoBehaviour:
  m_ObjectHideFlags: 0
  m_PrefabParentObject: {fileID: 0}
  m_PrefabInternal: {fileID: 0}
  m_GameObject: {fileID: 820927530}
  m_Enabled: 1
  m_EditorHideFlags: 0
  m_Script: {fileID: 11500000, guid: 657b8286362040d4c91a89f3a30d6842, type: 3}
  m_Name: 
  m_EditorClassIdentifier: 
--- !u!1 &884792310
GameObject:
  m_ObjectHideFlags: 0
  m_PrefabParentObject: {fileID: 0}
  m_PrefabInternal: {fileID: 0}
  serializedVersion: 5
  m_Component:
  - component: {fileID: 884792311}
  - component: {fileID: 884792314}
  - component: {fileID: 884792312}
  m_Layer: 0
  m_Name: AudioSourceProExamplePart6
  m_TagString: Untagged
  m_Icon: {fileID: 0}
  m_NavMeshLayer: 0
  m_StaticEditorFlags: 0
  m_IsActive: 0
--- !u!4 &884792311
Transform:
  m_ObjectHideFlags: 0
  m_PrefabParentObject: {fileID: 0}
  m_PrefabInternal: {fileID: 0}
  m_GameObject: {fileID: 884792310}
  m_LocalRotation: {x: 0, y: 0, z: 0, w: 1}
  m_LocalPosition: {x: -0, y: 0, z: -0}
  m_LocalScale: {x: 1, y: 1, z: 1}
  m_Children: []
  m_Father: {fileID: 584058582}
  m_RootOrder: 3
  m_LocalEulerAnglesHint: {x: 0, y: 0, z: 0}
--- !u!82 &884792312
AudioSource:
  m_ObjectHideFlags: 10
  m_PrefabParentObject: {fileID: 0}
  m_PrefabInternal: {fileID: 0}
  m_GameObject: {fileID: 884792310}
  m_Enabled: 1
  serializedVersion: 4
  OutputAudioMixerGroup: {fileID: 0}
  m_audioClip: {fileID: 0}
  m_PlayOnAwake: 0
  m_Volume: 1
  m_Pitch: 1
  Loop: 0
  Mute: 0
  Spatialize: 0
  SpatializePostEffects: 0
  Priority: 128
  DopplerLevel: 1
  MinDistance: 1
  MaxDistance: 500
  Pan2D: 0
  rolloffMode: 0
  BypassEffects: 0
  BypassListenerEffects: 0
  BypassReverbZones: 0
  rolloffCustomCurve:
    serializedVersion: 2
    m_Curve:
    - serializedVersion: 2
      time: 0
      value: 1
      inSlope: 0
      outSlope: 0
      tangentMode: 0
    - serializedVersion: 2
      time: 1
      value: 0
      inSlope: 0
      outSlope: 0
      tangentMode: 0
    m_PreInfinity: 2
    m_PostInfinity: 2
    m_RotationOrder: 4
  panLevelCustomCurve:
    serializedVersion: 2
    m_Curve:
    - serializedVersion: 2
      time: 0
      value: 0
      inSlope: 0
      outSlope: 0
      tangentMode: 0
    m_PreInfinity: 2
    m_PostInfinity: 2
    m_RotationOrder: 4
  spreadCustomCurve:
    serializedVersion: 2
    m_Curve:
    - serializedVersion: 2
      time: 0
      value: 0
      inSlope: 0
      outSlope: 0
      tangentMode: 0
    m_PreInfinity: 2
    m_PostInfinity: 2
    m_RotationOrder: 4
  reverbZoneMixCustomCurve:
    serializedVersion: 2
    m_Curve:
    - serializedVersion: 2
      time: 0
      value: 1
      inSlope: 0
      outSlope: 0
      tangentMode: 0
    m_PreInfinity: 2
    m_PostInfinity: 2
    m_RotationOrder: 4
--- !u!114 &884792314
MonoBehaviour:
  m_ObjectHideFlags: 0
  m_PrefabParentObject: {fileID: 0}
  m_PrefabInternal: {fileID: 0}
  m_GameObject: {fileID: 884792310}
  m_Enabled: 1
  m_EditorHideFlags: 0
  m_Script: {fileID: 11500000, guid: ca8ae34729948b84ca8698a29b32c385, type: 3}
  m_Name: 
  m_EditorClassIdentifier: 
  audioSource: {fileID: 884792312}
  clipType: 1
  clipName: Explosion1
  groupName: 
  OnStartActivated: 0
  OnVisibleActivated: 0
  OnInvisibleActivated: 0
  OnCollisionEnterActivated: 1
  OnCollisionExitActivated: 0
  OnTriggerEnterActivated: 0
  OnTriggerExitActivated: 0
  OnMouseEnterActivated: 0
  OnMouseClickActivated: 0
  OnEnableActivated: 0
  OnDisableActivated: 0
  OnCollision2dEnterActivated: 0
  OnCollision2dExitActivated: 0
  OnTriggerEnter2dActivated: 0
  OnTriggerExit2dActivated: 0
  OnParticleCollisionActivated: 0
  ShowEditor3D: 0
  ShowEditor2D: 0
  ShowEventTriggers: 1
  numSubscriptions: 1
  audioSubscriptions:
  - owner: {fileID: 0}
    isStandardEvent: 1
    standardEvent: 3
    sourceComponent: {fileID: 0}
    methodName: OnCollisionEnter
    actionType: 1
    cappedName: 
    filterLayers: 1
    filterTags: 1
    filterNames: 0
    tagMask: 1
    nameMask: 13
    nameToAdd: 
    allNames: []
    layerMask: 0
    tags:
    - Untagged
    names: []
--- !u!1 &1148898007
GameObject:
  m_ObjectHideFlags: 0
  m_PrefabParentObject: {fileID: 0}
  m_PrefabInternal: {fileID: 0}
  serializedVersion: 5
  m_Component:
  - component: {fileID: 1148898008}
  - component: {fileID: 1148898010}
  - component: {fileID: 1148898009}
  m_Layer: 0
  m_Name: AudioSourceProExamplePart4
  m_TagString: Untagged
  m_Icon: {fileID: 0}
  m_NavMeshLayer: 0
  m_StaticEditorFlags: 0
  m_IsActive: 0
--- !u!4 &1148898008
Transform:
  m_ObjectHideFlags: 0
  m_PrefabParentObject: {fileID: 0}
  m_PrefabInternal: {fileID: 0}
  m_GameObject: {fileID: 1148898007}
  m_LocalRotation: {x: 0, y: 0, z: 0, w: 1}
  m_LocalPosition: {x: -0, y: 0, z: -0}
  m_LocalScale: {x: 1, y: 1, z: 1}
  m_Children: []
  m_Father: {fileID: 584058582}
  m_RootOrder: 4
  m_LocalEulerAnglesHint: {x: 0, y: 0, z: 0}
--- !u!82 &1148898009
AudioSource:
  m_ObjectHideFlags: 10
  m_PrefabParentObject: {fileID: 0}
  m_PrefabInternal: {fileID: 0}
  m_GameObject: {fileID: 1148898007}
  m_Enabled: 1
  serializedVersion: 4
  OutputAudioMixerGroup: {fileID: 0}
  m_audioClip: {fileID: 0}
  m_PlayOnAwake: 0
  m_Volume: 1
  m_Pitch: 1
  Loop: 0
  Mute: 0
  Spatialize: 0
  SpatializePostEffects: 0
  Priority: 128
  DopplerLevel: 1
  MinDistance: 1
  MaxDistance: 500
  Pan2D: 0
  rolloffMode: 0
  BypassEffects: 0
  BypassListenerEffects: 0
  BypassReverbZones: 0
  rolloffCustomCurve:
    serializedVersion: 2
    m_Curve:
    - serializedVersion: 2
      time: 0
      value: 1
      inSlope: 0
      outSlope: 0
      tangentMode: 0
    - serializedVersion: 2
      time: 1
      value: 0
      inSlope: 0
      outSlope: 0
      tangentMode: 0
    m_PreInfinity: 2
    m_PostInfinity: 2
    m_RotationOrder: 4
  panLevelCustomCurve:
    serializedVersion: 2
    m_Curve:
    - serializedVersion: 2
      time: 0
      value: 0
      inSlope: 0
      outSlope: 0
      tangentMode: 0
    m_PreInfinity: 2
    m_PostInfinity: 2
    m_RotationOrder: 4
  spreadCustomCurve:
    serializedVersion: 2
    m_Curve:
    - serializedVersion: 2
      time: 0
      value: 0
      inSlope: 0
      outSlope: 0
      tangentMode: 0
    m_PreInfinity: 2
    m_PostInfinity: 2
    m_RotationOrder: 4
  reverbZoneMixCustomCurve:
    serializedVersion: 2
    m_Curve:
    - serializedVersion: 2
      time: 0
      value: 1
      inSlope: 0
      outSlope: 0
      tangentMode: 0
    m_PreInfinity: 2
    m_PostInfinity: 2
    m_RotationOrder: 4
--- !u!114 &1148898010
MonoBehaviour:
  m_ObjectHideFlags: 0
  m_PrefabParentObject: {fileID: 0}
  m_PrefabInternal: {fileID: 0}
  m_GameObject: {fileID: 1148898007}
  m_Enabled: 1
  m_EditorHideFlags: 0
  m_Script: {fileID: 11500000, guid: ca8ae34729948b84ca8698a29b32c385, type: 3}
  m_Name: 
  m_EditorClassIdentifier: 
  audioSource: {fileID: 1148898009}
  clipType: 1
  clipName: Explosion1
  groupName: 
  OnStartActivated: 0
  OnVisibleActivated: 0
  OnInvisibleActivated: 0
  OnCollisionEnterActivated: 0
  OnCollisionExitActivated: 0
  OnTriggerEnterActivated: 0
  OnTriggerExitActivated: 0
  OnMouseEnterActivated: 0
  OnMouseClickActivated: 0
  OnEnableActivated: 1
  OnDisableActivated: 1
  OnCollision2dEnterActivated: 0
  OnCollision2dExitActivated: 0
  OnTriggerEnter2dActivated: 0
  OnTriggerExit2dActivated: 0
  OnParticleCollisionActivated: 0
  ShowEditor3D: 0
  ShowEditor2D: 0
  ShowEventTriggers: 1
  numSubscriptions: 2
  audioSubscriptions:
  - owner: {fileID: 0}
    isStandardEvent: 1
    standardEvent: 9
    sourceComponent: {fileID: 0}
    methodName: OnEnable
    actionType: 2
    cappedName: 
    filterLayers: 0
    filterTags: 0
    filterNames: 0
    tagMask: 0
    nameMask: 0
    nameToAdd: 
    allNames: []
    layerMask: 0
    tags:
    - Default
    names: []
  - owner: {fileID: 0}
    isStandardEvent: 1
    standardEvent: 10
    sourceComponent: {fileID: 0}
    methodName: OnDisable
    actionType: 4
    cappedName: 
    filterLayers: 0
    filterTags: 0
    filterNames: 0
    tagMask: 0
    nameMask: 0
    nameToAdd: 
    allNames: []
    layerMask: 0
    tags:
    - Default
    names: []
--- !u!1001 &1790354377
Prefab:
  m_ObjectHideFlags: 0
  serializedVersion: 2
  m_Modification:
    m_TransformParent: {fileID: 0}
    m_Modifications:
    - target: {fileID: 11400000, guid: d65b5b8b42ae8f54780d300fb8a1b82b, type: 2}
      propertyPath: sfxGroups.Array.size
      value: 1
      objectReference: {fileID: 0}
    - target: {fileID: 11400000, guid: d65b5b8b42ae8f54780d300fb8a1b82b, type: 2}
      propertyPath: storedSFXs.Array.size
      value: 1
      objectReference: {fileID: 0}
    - target: {fileID: 11400000, guid: d65b5b8b42ae8f54780d300fb8a1b82b, type: 2}
      propertyPath: showSFXDetails.Array.size
      value: 1
      objectReference: {fileID: 0}
    - target: {fileID: 11400000, guid: d65b5b8b42ae8f54780d300fb8a1b82b, type: 2}
      propertyPath: sfxBaseVolumes.Array.size
      value: 1
      objectReference: {fileID: 0}
    - target: {fileID: 11400000, guid: d65b5b8b42ae8f54780d300fb8a1b82b, type: 2}
      propertyPath: clipToGroupKeys.Array.size
      value: 1
      objectReference: {fileID: 0}
    - target: {fileID: 11400000, guid: d65b5b8b42ae8f54780d300fb8a1b82b, type: 2}
      propertyPath: sfxPrePoolAmounts.Array.size
      value: 1
      objectReference: {fileID: 0}
    - target: {fileID: 11400000, guid: d65b5b8b42ae8f54780d300fb8a1b82b, type: 2}
      propertyPath: clipToGroupValues.Array.size
      value: 1
      objectReference: {fileID: 0}
    - target: {fileID: 11400000, guid: d65b5b8b42ae8f54780d300fb8a1b82b, type: 2}
      propertyPath: sfxPitchVariations.Array.size
      value: 1
      objectReference: {fileID: 0}
    - target: {fileID: 11400000, guid: d65b5b8b42ae8f54780d300fb8a1b82b, type: 2}
      propertyPath: sfxVolumeVariations.Array.size
      value: 1
      objectReference: {fileID: 0}
    - target: {fileID: 400000, guid: d65b5b8b42ae8f54780d300fb8a1b82b, type: 2}
      propertyPath: m_LocalPosition.x
      value: 0
      objectReference: {fileID: 0}
    - target: {fileID: 400000, guid: d65b5b8b42ae8f54780d300fb8a1b82b, type: 2}
      propertyPath: m_LocalPosition.y
      value: 0
      objectReference: {fileID: 0}
    - target: {fileID: 400000, guid: d65b5b8b42ae8f54780d300fb8a1b82b, type: 2}
      propertyPath: m_LocalPosition.z
      value: 0
      objectReference: {fileID: 0}
    - target: {fileID: 400000, guid: d65b5b8b42ae8f54780d300fb8a1b82b, type: 2}
      propertyPath: m_LocalRotation.x
      value: 0
      objectReference: {fileID: 0}
    - target: {fileID: 400000, guid: d65b5b8b42ae8f54780d300fb8a1b82b, type: 2}
      propertyPath: m_LocalRotation.y
      value: 0
      objectReference: {fileID: 0}
    - target: {fileID: 400000, guid: d65b5b8b42ae8f54780d300fb8a1b82b, type: 2}
      propertyPath: m_LocalRotation.z
      value: 0
      objectReference: {fileID: 0}
    - target: {fileID: 400000, guid: d65b5b8b42ae8f54780d300fb8a1b82b, type: 2}
      propertyPath: m_LocalRotation.w
      value: 1
      objectReference: {fileID: 0}
    - target: {fileID: 11400000, guid: d65b5b8b42ae8f54780d300fb8a1b82b, type: 2}
      propertyPath: storedSFXs.Array.data[0]
      value: 
      objectReference: {fileID: 8300000, guid: 4aace3f56335d6c4196b5098a89f1470, type: 3}
    - target: {fileID: 11400000, guid: d65b5b8b42ae8f54780d300fb8a1b82b, type: 2}
      propertyPath: sfxGroups.Array.data[0].groupName
      value: BlowUp
      objectReference: {fileID: 0}
    - target: {fileID: 11400000, guid: d65b5b8b42ae8f54780d300fb8a1b82b, type: 2}
      propertyPath: sfxGroups.Array.data[0].specificCapAmount
      value: -1
      objectReference: {fileID: 0}
    - target: {fileID: 11400000, guid: d65b5b8b42ae8f54780d300fb8a1b82b, type: 2}
      propertyPath: showSFXDetails.Array.data[0]
      value: 1
      objectReference: {fileID: 0}
    - target: {fileID: 11400000, guid: d65b5b8b42ae8f54780d300fb8a1b82b, type: 2}
      propertyPath: clipToGroupKeys.Array.data[0]
      value: Explosion1
      objectReference: {fileID: 0}
    - target: {fileID: 11400000, guid: d65b5b8b42ae8f54780d300fb8a1b82b, type: 2}
      propertyPath: clipToGroupValues.Array.data[0]
      value: BlowUp
      objectReference: {fileID: 0}
    - target: {fileID: 11400000, guid: d65b5b8b42ae8f54780d300fb8a1b82b, type: 2}
      propertyPath: sfxBaseVolumes.Array.data[0]
      value: 1
      objectReference: {fileID: 0}
    - target: {fileID: 11400000, guid: d65b5b8b42ae8f54780d300fb8a1b82b, type: 2}
      propertyPath: sfxGroups.Array.data[0].volume
      value: 1
      objectReference: {fileID: 0}
    - target: {fileID: 11400000, guid: d65b5b8b42ae8f54780d300fb8a1b82b, type: 2}
      propertyPath: sfxGroups.Array.data[0].pitch
      value: 1
      objectReference: {fileID: 0}
    m_RemovedComponents: []
  m_ParentPrefab: {fileID: 100100000, guid: d65b5b8b42ae8f54780d300fb8a1b82b, type: 2}
  m_RootGameObject: {fileID: 585241479}
  m_IsPrefabParent: 0
--- !u!1 &2108119619
GameObject:
  m_ObjectHideFlags: 0
  m_PrefabParentObject: {fileID: 0}
  m_PrefabInternal: {fileID: 0}
  serializedVersion: 5
  m_Component:
  - component: {fileID: 2108119620}
  - component: {fileID: 2108119622}
  - component: {fileID: 2108119621}
  m_Layer: 0
  m_Name: AudioSourceProExamplePart2
  m_TagString: Untagged
  m_Icon: {fileID: 0}
  m_NavMeshLayer: 0
  m_StaticEditorFlags: 0
  m_IsActive: 0
--- !u!4 &2108119620
Transform:
  m_ObjectHideFlags: 0
  m_PrefabParentObject: {fileID: 0}
  m_PrefabInternal: {fileID: 0}
  m_GameObject: {fileID: 2108119619}
  m_LocalRotation: {x: 0, y: 0, z: 0, w: 1}
  m_LocalPosition: {x: -0, y: 0, z: -0}
  m_LocalScale: {x: 1, y: 1, z: 1}
  m_Children: []
  m_Father: {fileID: 584058582}
  m_RootOrder: 5
  m_LocalEulerAnglesHint: {x: 0, y: 0, z: 0}
--- !u!82 &2108119621
AudioSource:
  m_ObjectHideFlags: 10
  m_PrefabParentObject: {fileID: 0}
  m_PrefabInternal: {fileID: 0}
  m_GameObject: {fileID: 2108119619}
  m_Enabled: 1
  serializedVersion: 4
  OutputAudioMixerGroup: {fileID: 0}
  m_audioClip: {fileID: 0}
  m_PlayOnAwake: 1
  m_Volume: 1
  m_Pitch: 1
  Loop: 0
  Mute: 0
  Spatialize: 0
  SpatializePostEffects: 0
  Priority: 128
  DopplerLevel: 1
  MinDistance: 1
  MaxDistance: 500
  Pan2D: 0
  rolloffMode: 0
  BypassEffects: 0
  BypassListenerEffects: 0
  BypassReverbZones: 0
  rolloffCustomCurve:
    serializedVersion: 2
    m_Curve:
    - serializedVersion: 2
      time: 0
      value: 1
      inSlope: 0
      outSlope: 0
      tangentMode: 0
    - serializedVersion: 2
      time: 1
      value: 0
      inSlope: 0
      outSlope: 0
      tangentMode: 0
    m_PreInfinity: 2
    m_PostInfinity: 2
    m_RotationOrder: 4
  panLevelCustomCurve:
    serializedVersion: 2
    m_Curve:
    - serializedVersion: 2
      time: 0
      value: 0
      inSlope: 0
      outSlope: 0
      tangentMode: 0
    m_PreInfinity: 2
    m_PostInfinity: 2
    m_RotationOrder: 4
  spreadCustomCurve:
    serializedVersion: 2
    m_Curve:
    - serializedVersion: 2
      time: 0
      value: 0
      inSlope: 0
      outSlope: 0
      tangentMode: 0
    m_PreInfinity: 2
    m_PostInfinity: 2
    m_RotationOrder: 4
  reverbZoneMixCustomCurve:
    serializedVersion: 2
    m_Curve:
    - serializedVersion: 2
      time: 0
      value: 1
      inSlope: 0
      outSlope: 0
      tangentMode: 0
    m_PreInfinity: 2
    m_PostInfinity: 2
    m_RotationOrder: 4
--- !u!114 &2108119622
MonoBehaviour:
  m_ObjectHideFlags: 0
  m_PrefabParentObject: {fileID: 0}
  m_PrefabInternal: {fileID: 0}
  m_GameObject: {fileID: 2108119619}
  m_Enabled: 1
  m_EditorHideFlags: 0
  m_Script: {fileID: 11500000, guid: ca8ae34729948b84ca8698a29b32c385, type: 3}
  m_Name: 
  m_EditorClassIdentifier: 
  audioSource: {fileID: 2108119621}
  clipType: 1
  clipName: Explosion1
  groupName: 
  OnStartActivated: 0
  OnVisibleActivated: 0
  OnInvisibleActivated: 0
  OnCollisionEnterActivated: 0
  OnCollisionExitActivated: 0
  OnTriggerEnterActivated: 0
  OnTriggerExitActivated: 0
  OnMouseEnterActivated: 0
  OnMouseClickActivated: 0
  OnEnableActivated: 0
  OnDisableActivated: 0
  OnCollision2dEnterActivated: 0
  OnCollision2dExitActivated: 0
  OnTriggerEnter2dActivated: 0
  OnTriggerExit2dActivated: 0
  OnParticleCollisionActivated: 0
  ShowEditor3D: 0
  ShowEditor2D: 0
  ShowEventTriggers: 0
  numSubscriptions: 0
  audioSubscriptions: []
